cgmguru: Examples Gallery
…
#> > grid_result <- grid(example_data_5_subject, gap = 15, 
#> +     threshold = 130)
#> 
#> > print(grid_result$episode_counts)
#> # A tibble: 5 × 2
#>   id        episode_counts
#>   <chr>              <int>
#> 1 Subject 1             10
#> 2 Subject 2             22
#> 3 Subject 3              7
#> 4 Subject 4             18
#> 5 Subject 5             42
#> 
#> > print(grid_result$episode_start)
#> # A tibble: 99 × 4
#>    id        time                   gl indices
#>    <chr>     <dttm>              <dbl>   <int>
#>  1 Subject 1 2015-06-11 15:30:07   143     966
#>  2 Subject 1 2015-06-11 17:10:07   157     985
#>  3 Subject 1 2015-06-11 22:00:06   135    1038
#>  4 Subject 1 2015-06-11 22:25:06   162    1043
#>  5 Subject 1 2015-06-12 07:40:04   160    1154
#>  6 Subject 1 2015-06-13 16:34:59   132    1415
#>  7 Subject 1 2015-06-14 17:39:55   176    1676
#>  8 Subject 1 2015-06-16 19:14:47   166    2222
#>  9 Subject 1 2015-06-18 14:29:40   187    2720
#> 10 Subject 1 2015-06-18 18:19:39   132    2765
#> # ℹ 89 more rows
#> 
#> > print(grid_result$grid_vector)
#> # A tibble: 13,866 × 1
#>     grid
#>    <int>
#>  1     0
#>  2     0
#>  3     0
#>  4     0
#>  5     0
#>  6     0
#>  7     0
#>  8     0
#>  9     0
#> 10     0
#> # ℹ 13,856 more rows
#> 
#> > sensitive_result <- grid(example_data_5_subject, gap = 10, 
#> +     threshold = 120)
#> 
#> > large_grid <- grid(example_data_hall, gap = 15, threshold = 130)
#> 
#> > print(paste("Detected", sum(large_grid$episode_counts$episode_counts), 
#> +     "episodes"))
#> [1] "Detected 79 episodes"
#> 
#> > print(large_grid$episode_start)
#> # A tibble: 79 × 4
#>    id          time                   gl indices
#>    <chr>       <dttm>              <dbl>   <int>
#>  1 1636-69-001 2014-02-04 07:47:05   138     336
#>  2 1636-69-001 2014-02-04 17:42:03   138     455
#>  3 1636-69-001 2014-02-05 08:41:59   137     635
#>  4 1636-69-001 2015-03-29 14:33:30   137     786
#>  5 1636-69-001 2015-03-30 10:53:25   132     979
#>  6 1636-69-001 2015-03-31 09:18:19   143    1202
#>  7 1636-69-001 2015-03-31 13:58:18   136    1258
#>  8 1636-69-001 2015-04-01 16:58:12   132    1581
#>  9 1636-69-026 2015-11-24 14:37:18   142    2011
#> 10 1636-69-026 2015-11-24 23:32:16   139    2118
#> # ℹ 69 more rows
#> 
#> > print(large_grid$grid_vector)
#> # A tibble: 34,890 × 1
#>     grid
#>    <int>
#>  1     0
#>  2     0
#>  3     0
#>  4     0
#>  5     0
#>  6     0
#>  7     0
#>  8     0
#>  9     0
#> 10     0
#> # ℹ 34,880 more rows
…
source(file.path(examples_dir, "detect_all_events.R"), echo = TRUE, print.eval = TRUE, max.deparse.length = Inf)
#> 
#> > library(cgmguru)
#> 
#> > library(iglu)
#> 
#> > data(example_data_5_subject)
#> 
#> > data(example_data_hall)
#> 
#> > all_events <- detect_all_events(example_data_5_subject, 
#> +     reading_minutes = 5)
#> 
#> > print(all_events)
#> # A tibble: 40 × 6
#>    id        type  level    total_episodes avg_ep_per_day avg_episode_duration…¹
#>    <chr>     <chr> <chr>             <int>          <dbl>                  <dbl>
#>  1 Subject 1 hypo  lv1                   1           0.08                      0
#>  2 Subject 1 hypo  lv2                   0           0                         0
#>  3 Subject 1 hypo  extended              0           0                         0
#>  4 Subject 1 hypo  lv1_excl              1           0.08                      0
#>  5 Subject 1 hyper lv1                  14           1.1                       0
#>  6 Subject 1 hyper lv2                   2           0.16                      0
#>  7 Subject 1 hyper extended              0           0                         0
#>  8 Subject 1 hyper lv1_excl             12           0.95                      0
#>  9 Subject 2 hypo  lv1                   0           0                         0
#> 10 Subject 2 hypo  lv2                   0           0                         0
#> # ℹ 30 more rows
#> # ℹ abbreviated name: ¹​avg_episode_duration_below_54
…
#> > maxima_result <- maxima_grid(example_data_5_subject, 
#> +     threshold = 130, gap = 60, hours = 2)
#> 
#> > print(maxima_result$episode_counts)
#> # A tibble: 5 × 2
#>   id        episode_counts
#>   <chr>              <int>
#> 1 Subject 1              8
#> 2 Subject 2             18
#> 3 Subject 3              7
#> 4 Subject 4             16
#> 5 Subject 5             39
#> 
#> > print(maxima_result$results)
#> # A tibble: 88 × 8
#>    id        grid_time       grid_gl maxima_time maxima_glucose time_to_peak_min
#>    <chr>     <dttm>            <dbl> <dttm>               <dbl>            <dbl>
#>  1 Subject 1 2015-06-11 15:…     143 2015-06-11…            276               40
#>  2 Subject 1 2015-06-11 22:…     135 2015-06-11…            209               50
#>  3 Subject 1 2015-06-12 07:…     160 2015-06-12…            210               40
#>  4 Subject 1 2015-06-13 16:…     132 2015-06-13…            202               60
#>  5 Subject 1 2015-06-14 17:…     176 2015-06-14…            227               45
#>  6 Subject 1 2015-06-16 19:…     166 2015-06-16…            208               65
#>  7 Subject 1 2015-06-18 14:…     187 2015-06-18…            212               20
#>  8 Subject 1 2015-06-18 18:…     132 2015-06-18…            183               35
#>  9 Subject 2 2015-02-24 20:…     140 2015-02-24…            222               85
#> 10 Subject 2 2015-02-25 19:…     173 2015-02-25…            273              125
#> # ℹ 78 more rows
#> # ℹ 2 more variables: grid_index <int>, maxima_index <int>
…
#> > sensitive_maxima <- maxima_grid(example_data_5_subject, 
#> +     threshold = 120, gap = 30, hours = 1)
#> 
#> > print(sensitive_maxima$episode_counts)
#> # A tibble: 5 × 2
#>   id        episode_counts
#>   <chr>              <int>
#> 1 Subject 1             10
#> 2 Subject 2             19
#> 3 Subject 3             10
#> 4 Subject 4             20
#> 5 Subject 5             40
#> 
#> > print(sensitive_maxima$results)
#> # A tibble: 99 × 8
#>    id        grid_time       grid_gl maxima_time maxima_glucose time_to_peak_min
#>    <chr>     <dttm>            <dbl> <dttm>               <dbl>            <dbl>
#>  1 Subject 1 2015-06-11 15:…     143 2015-06-11…            276               40
#>  2 Subject 1 2015-06-11 17:…     157 2015-06-11…            267               55
#>  3 Subject 1 2015-06-11 21:…     125 2015-06-11…            209               60
#>  4 Subject 1 2015-06-12 07:…     160 2015-06-12…            210               40
#>  5 Subject 1 2015-06-13 16:…     124 2015-06-13…            202               65
#>  6 Subject 1 2015-06-14 17:…     176 2015-06-14…            228               95
#>  7 Subject 1 2015-06-16 19:…     166 2015-06-16…            208               65
#>  8 Subject 1 2015-06-18 13:…     126 2015-06-18…            183               55
#>  9 Subject 1 2015-06-18 14:…     187 2015-06-18…            212               20
#> 10 Subject 1 2015-06-18 18:…     132 2015-06-18…            183               35
#> # ℹ 89 more rows
#> # ℹ 2 more variables: grid_index <int>, maxima_index <int>
…
#>  7 1636-70-1010              2
#>  8 2133-004                  5
#>  9 2133-015                  4
#> 10 2133-017                  2
#> 11 2133-018                 12
#> 12 2133-019                  2
#> 13 2133-021                 10
#> 14 2133-024                  1
#> 15 2133-027                  1
#> 16 2133-035                  1
#> 17 2133-036                  2
#> 18 2133-039                  5
#> 
#> > print(large_maxima$results)
#> # A tibble: 76 × 8
#>    id          grid_time     grid_gl maxima_time maxima_glucose time_to_peak_min
#>    <chr>       <dttm>          <dbl> <dttm>               <dbl>            <dbl>
#>  1 1636-69-001 2014-02-04 0…     138 2014-02-04…            194               30
#>  2 1636-69-001 2014-02-04 1…     138 2014-02-04…            225               60
#>  3 1636-69-001 2014-02-05 0…     137 2014-02-05…            196               45
#>  4 1636-69-001 2015-03-29 1…     137 2015-03-29…            250               65
#>  5 1636-69-001 2015-03-30 1…     132 2015-03-30…            181               45
#>  6 1636-69-001 2015-03-31 0…     143 2015-03-31…            177               20
#>  7 1636-69-001 2015-03-31 1…     136 2015-03-31…            169               30
#>  8 1636-69-001 2015-04-01 1…     132 2015-04-01…            165               50
#>  9 1636-69-026 2015-11-24 1…     142 2015-11-24…            182               40
#> 10 1636-69-026 2015-11-24 2…     139 2015-11-25…            171               35
#> # ℹ 66 more rows
#> # ℹ 2 more variables: grid_index <int>, maxima_index <int>
…
