cgmguru: Complete CGM Analysis Workflow
…
4. Comprehensive Event Detection

Detect all types of glycemic events in one analysis.

# Detect all events with 5-minute reading intervals
all_events <- detect_all_events(example_data_5_subject, reading_minutes = 5)

cat("Comprehensive Event Detection Results:\n")
#> Comprehensive Event Detection Results:
print(all_events)
#> # A tibble: 40 × 6
#>    id        type  level    total_episodes avg_ep_per_day avg_episode_duration…¹
#>    <chr>     <chr> <chr>             <int>          <dbl>                  <dbl>
#>  1 Subject 1 hypo  lv1                   1           0.08                      0
#>  2 Subject 1 hypo  lv2                   0           0                         0
#>  3 Subject 1 hypo  extended              0           0                         0
#>  4 Subject 1 hypo  lv1_excl              1           0.08                      0
#>  5 Subject 1 hyper lv1                  14           1.1                       0
#>  6 Subject 1 hyper lv2                   2           0.16                      0
#>  7 Subject 1 hyper extended              0           0                         0
#>  8 Subject 1 hyper lv1_excl             12           0.95                      0
#>  9 Subject 2 hypo  lv1                   0           0                         0
#> 10 Subject 2 hypo  lv2                   0           0                         0
#> # ℹ 30 more rows
#> # ℹ abbreviated name: ¹​avg_episode_duration_below_54
…
