…
maxima <- maxima_grid(example_data_5_subject, 
                     threshold = 130, 
                     gap = 60, 
                     hours = 2)
```

#### Example output for `maxima_grid`
```r
# Show a trimmed view for readability
maxima$episode_counts
```

```text
$results
# A tibble: 88 × 8
   id        grid_time           grid_gl maxima_time         maxima_glucose time_to_peak grid_index maxima_index
   <chr>     <dttm>                <dbl> <dttm>                       <dbl>        <dbl>      <int>        <int>
 1 Subject 1 2015-06-11 20:30:07     143 2015-06-11 21:10:07            276         2400        967          975
 2 Subject 1 2015-06-12 03:00:06     135 2015-06-12 03:50:06            209         3000       1039         1049
 3 Subject 1 2015-06-12 12:40:04     160 2015-06-12 13:20:04            210         2400       1155         1163
 4 Subject 1 2015-06-13 21:34:59     132 2015-06-13 22:34:59            202         3600       1416         1426
 5 Subject 1 2015-06-14 22:39:55     176 2015-06-14 23:24:55            227         2700       1677         1686
 6 Subject 1 2015-06-17 00:14:47     166 2015-06-17 01:19:46            208         3899       2223         2236
 7 Subject 1 2015-06-18 19:29:40     187 2015-06-18 19:49:39            212         1199       2721         2725
 8 Subject 1 2015-06-18 23:19:39     132 2015-06-18 23:54:39            183         2100       2766         2773
 9 Subject 2 2015-02-25 01:06:29     140 2015-02-25 02:31:29            222         5100       2947         2964
10 Subject 2 2015-02-26 00:26:28     173 2015-02-26 02:31:27            273         7499       3227         3252
# ℹ 78 more rows
# ℹ Use `print(n = ...)` to see more rows
…
#### Example output for `detect_all_events`
```r
all_events <- detect_all_events(example_data_5_subject)
all_events
```

```text
# A tibble: 40 × 7
   id        type  level    avg_ep_per_day avg_ep_duration avg_ep_gl total_episodes
   <chr>     <chr> <chr>             <dbl>           <dbl>     <dbl>          <int>
 1 Subject 1 hypo  lv1                0.08            15        67.3              1
 2 Subject 1 hypo  lv2                0                0         0                0
 3 Subject 1 hypo  extended           0                0         0                0
 4 Subject 1 hypo  lv1_excl           0.08            15        67.3              1
 5 Subject 1 hyper lv1                1.1             74.6     201.              14
 6 Subject 1 hyper lv2                0.16            22.5     266.               2
 7 Subject 1 hyper extended           0                0         0                0
 8 Subject 1 hyper lv1_excl           0.95            83.3     190.              12
 9 Subject 2 hypo  lv1                0                0         0                0
10 Subject 2 hypo  lv2                0                0         0                0
# ℹ 30 more rows
# ℹ Use `print(n = ...)` to see more rows
```
…
