Detect All Glycemic Events — detect_all_events • cgmguru
…
#>   id          TIR  TITR TBR70 TBR54 TAR180 TAR250    CV    SD mean_glucose   GMI
#>   <chr>     <dbl> <dbl> <dbl> <dbl>  <dbl>  <dbl> <dbl> <dbl>        <dbl> <dbl>
#> 1 Subject 1  91.7 73.7   0.14  0      8.2    0.38  26.9  33.3         124.  6.27
#> 2 Subject 2  26.4  3.36  0     0     73.6   26.1   24.0  52.4         218.  8.54
#> 3 Subject 3  81.3 49.8   0.33  0     18.3    5.68  29.1  44.8         154.  6.99
#> 4 Subject 4  95.1 67.7   0.27  0.05   4.61   0     22.4  29.1         130.  6.41
#> 5 Subject 5  62.1 30.1   0.1   0     37.8   11.3   33.6  58.6         175.  7.49
#> # ℹ 13 more variables: uGMI <dbl>, GRI <dbl>, sensor_wear_percent <dbl>,
#> #   hypo_lv1_total_episodes <int>, hypo_lv2_total_episodes <int>,
#> #   hypo_extended_total_episodes <int>, hypo_lv1_excl_total_episodes <int>,
#> #   hypo_rebound_total_episodes <int>, hyper_lv1_total_episodes <int>,
#> #   hyper_lv2_total_episodes <int>, hyper_extended_total_episodes <int>,
#> #   hyper_lv1_excl_total_episodes <int>, hyper_rebound_total_episodes <int>
print(all_outputs$glycemic_event_summary)
#> # A tibble: 50 × 6
#>    id        type  level    total_episodes avg_ep_per_day avg_minutes_below_54…¹
#>    <chr>     <chr> <chr>             <int>          <dbl>                  <dbl>
#>  1 Subject 1 hypo  lv1                   1           0.09                      0
#>  2 Subject 1 hypo  lv2                   0           0                         0
#>  3 Subject 1 hypo  extended              0           0                         0
#>  4 Subject 1 hypo  lv1_excl              1           0.09                      0
#>  5 Subject 1 hypo  rebound               0           0                         0
#>  6 Subject 1 hyper lv1                  16           1.44                      0
#>  7 Subject 1 hyper lv2                   2           0.18                      0
#>  8 Subject 1 hyper extended              0           0                         0
#>  9 Subject 1 hyper lv1_excl             14           1.26                      0
#> 10 Subject 1 hyper rebound               0           0                         0
#> # ℹ 40 more rows
#> # ℹ abbreviated name: ¹​avg_minutes_below_54_per_episode
…
