…
# Basic GRID analysis on smaller dataset
grid_result <- grid(example_data_5_subject, gap = 15, threshold = 130)
print(grid_result$episode_counts)
#> # A tibble: 5 × 2
#>   id        episode_counts
#>   <chr>              <int>
#> 1 Subject 1             10
#> 2 Subject 2             22
#> 3 Subject 3              7
#> 4 Subject 4             18
#> 5 Subject 5             42
print(grid_result$episode_start)
#> # A tibble: 99 × 4
#>    id        time                   gl index
#>    <chr>     <dttm>              <dbl> <int>
#>  1 Subject 1 2015-06-11 15:30:07   143   966
#>  2 Subject 1 2015-06-11 17:10:07   157   985
#>  3 Subject 1 2015-06-11 22:00:06   135  1038
#>  4 Subject 1 2015-06-11 22:25:06   162  1043
#>  5 Subject 1 2015-06-12 07:40:04   160  1154
#>  6 Subject 1 2015-06-13 16:34:59   132  1415
#>  7 Subject 1 2015-06-14 17:39:55   176  1676
#>  8 Subject 1 2015-06-16 19:14:47   166  2222
#>  9 Subject 1 2015-06-18 14:29:40   187  2720
#> 10 Subject 1 2015-06-18 18:19:39   132  2765
#> # ℹ 89 more rows
print(grid_result$grid_vector)
#> # A tibble: 13,866 × 1
#>     grid
#>    <int>
#>  1     0
#>  2     0
#>  3     0
#>  4     0
#>  5     0
#>  6     0
#>  7     0
#>  8     0
#>  9     0
#> 10     0
#> # ℹ 13,856 more rows

# More sensitive GRID analysis
sensitive_result <- grid(example_data_5_subject, gap = 10, threshold = 120)

# GRID analysis on larger dataset
large_grid <- grid(example_data_hall, gap = 15, threshold = 130)
print(paste("Detected", sum(large_grid$episode_counts$episode_counts), "episodes"))
#> [1] "Detected 79 episodes"
print(large_grid$episode_start)
#> # A tibble: 79 × 4
#>    id          time                   gl index
#>    <chr>       <dttm>              <dbl> <int>
#>  1 1636-69-001 2014-02-04 07:47:05   138   336
#>  2 1636-69-001 2014-02-04 17:42:03   138   455
#>  3 1636-69-001 2014-02-05 08:41:59   137   635
#>  4 1636-69-001 2015-03-29 14:33:30   137   786
#>  5 1636-69-001 2015-03-30 10:53:25   132   979
#>  6 1636-69-001 2015-03-31 09:18:19   143  1202
#>  7 1636-69-001 2015-03-31 13:58:18   136  1258
#>  8 1636-69-001 2015-04-01 16:58:12   132  1581
#>  9 1636-69-026 2015-11-24 14:37:18   142  2011
#> 10 1636-69-026 2015-11-24 23:32:16   139  2118
#> # ℹ 69 more rows
print(large_grid$grid_vector)
#> # A tibble: 34,890 × 1
#>     grid
#>    <int>
#>  1     0
#>  2     0
#>  3     0
#>  4     0
#>  5     0
#>  6     0
#>  7     0
#>  8     0
#>  9     0
#> 10     0
#> # ℹ 34,880 more rows
```
