…
cat("Note: The 'iglu' package is not available; vignette examples are skipped.\n")
```

## iglu: episode_calculation

[`iglu::episode_calculation()`](https://irinagain.github.io/iglu/reference/episode_calculation.html)
identifies hypo/hyperglycemia episodes.

``` r

iglu_episodes_5 <- iglu::episode_calculation(
  data = example_data_5_subject
)
print(iglu_episodes_5)
#> # A tibble: 35 × 7
#>    id        type  level avg_ep_per_day avg_ep_duration avg_ep_gl total_episodes
#>    <fct>     <chr> <chr>          <dbl>           <dbl>     <dbl>          <dbl>
#>  1 Subject 1 hypo  lv1           0.0899            35        68.6              1
#>  2 Subject 1 hypo  lv2           0                  0        NA                0
#>  3 Subject 1 hypo  exte…         0                  0        NA                0
#>  4 Subject 1 hyper lv1           1.44              80.3     200.              16
#>  5 Subject 1 hyper lv2           0.180             30       264.               2
#>  6 Subject 1 hypo  lv1_…         0.0899            35        68.6              1
#>  7 Subject 1 hyper lv1_…         1.26              79.6     195.              14
#>  8 Subject 2 hypo  lv1           0                  0        NA                0
#>  9 Subject 2 hypo  lv2           0                  0        NA                0
#> 10 Subject 2 hypo  exte…         0                  0        NA                0
#> # ℹ 25 more rows
```

``` r

iglu_episodes_hall <- iglu::episode_calculation(
  data = example_data_hall
)
print(iglu_episodes_hall)
#> # A tibble: 133 × 7
#>    id        type  level avg_ep_per_day avg_ep_duration avg_ep_gl total_episodes
#>    <chr>     <chr> <chr>          <dbl>           <dbl>     <dbl>          <dbl>
#>  1 1636-69-… hypo  lv1            0.468            15        68.1              3
#>  2 1636-69-… hypo  lv2            0                 0        NA                0
#>  3 1636-69-… hypo  exte…          0                 0        NA                0
#>  4 1636-69-… hyper lv1            0.623            57.5     201.               4
#>  5 1636-69-… hyper lv2            0                 0        NA                0
#>  6 1636-69-… hypo  lv1_…          0.468            15        68.1              3
#>  7 1636-69-… hyper lv1_…          0.623            57.5     201.               4
#>  8 1636-69-… hypo  lv1            0                 0        NA                0
#>  9 1636-69-… hypo  lv2            0                 0        NA                0
#> 10 1636-69-… hypo  exte…          0                 0        NA                0
#> # ℹ 123 more rows
```
…
#>   <chr>     <dbl> <dbl> <dbl> <dbl>  <dbl>  <dbl> <dbl> <dbl>        <dbl> <dbl>
#> 1 Subject 1  91.7 73.7   0.14  0      8.2    0.38  26.9  33.3         124.  6.27
#> 2 Subject 2  26.4  3.36  0     0     73.6   26.1   24.0  52.4         218.  8.54
#> 3 Subject 3  81.3 49.8   0.33  0     18.3    5.68  29.1  44.8         154.  6.99
#> 4 Subject 4  95.1 67.7   0.27  0.05   4.61   0     22.4  29.1         130.  6.41
#> 5 Subject 5  62.1 30.1   0.1   0     37.8   11.3   33.6  58.6         175.  7.49
#> # ℹ 13 more variables: uGMI <dbl>, GRI <dbl>, sensor_wear_percent <dbl>,
#> #   hypo_lv1_total_episodes <int>, hypo_lv2_total_episodes <int>,
#> #   hypo_extended_total_episodes <int>, hypo_lv1_excl_total_episodes <int>,
#> #   hypo_rebound_total_episodes <int>, hyper_lv1_total_episodes <int>,
#> #   hyper_lv2_total_episodes <int>, hyper_extended_total_episodes <int>,
#> #   hyper_lv1_excl_total_episodes <int>, hyper_rebound_total_episodes <int>
#> 
#> $glycemic_event_summary
#> # A tibble: 50 × 6
#>    id        type  level    total_episodes avg_ep_per_day avg_minutes_below_54…¹
#>    <chr>     <chr> <chr>             <int>          <dbl>                  <dbl>
#>  1 Subject 1 hypo  lv1                   1           0.09                      0
#>  2 Subject 1 hypo  lv2                   0           0                         0
#>  3 Subject 1 hypo  extended              0           0                         0
#>  4 Subject 1 hypo  lv1_excl              1           0.09                      0
#>  5 Subject 1 hypo  rebound               0           0                         0
#>  6 Subject 1 hyper lv1                  16           1.44                      0
#>  7 Subject 1 hyper lv2                   2           0.18                      0
#>  8 Subject 1 hyper extended              0           0                         0
#>  9 Subject 1 hyper lv1_excl             14           1.26                      0
#> 10 Subject 1 hyper rebound               0           0                         0
#> # ℹ 40 more rows
#> # ℹ abbreviated name: ¹​avg_minutes_below_54_per_episode
```
…
#> 14 2133-021  91.3  70.7  0.61  0      8.07   0     24.7  32.1        130.   6.42
#> 15 2133-024  93.8  91.0  6.15  0.55   0      0     20.1  20.0         99.4  5.69
#> 16 2133-027  94.5  93.6  5.48  0      0      0     14.7  13.4         91.1  5.49
#> 17 2133-035  99.2  95.0  0.55  0.05   0.27   0     16.6  16.9        102.   5.74
#> 18 2133-036  93.5  82.6  5.07  0      1.43   0     24.7  26.6        108.   5.88
#> 19 2133-039  95.1  87.3  4.22  0.15   0.7    0     22.8  23.7        104.   5.8 
#> # ℹ 13 more variables: uGMI <dbl>, GRI <dbl>, sensor_wear_percent <dbl>,
#> #   hypo_lv1_total_episodes <int>, hypo_lv2_total_episodes <int>,
#> #   hypo_extended_total_episodes <int>, hypo_lv1_excl_total_episodes <int>,
#> #   hypo_rebound_total_episodes <int>, hyper_lv1_total_episodes <int>,
#> #   hyper_lv2_total_episodes <int>, hyper_extended_total_episodes <int>,
#> #   hyper_lv1_excl_total_episodes <int>, hyper_rebound_total_episodes <int>
#> 
#> $glycemic_event_summary
#> # A tibble: 190 × 6
#>    id          type  level  total_episodes avg_ep_per_day avg_minutes_below_54…¹
#>    <chr>       <chr> <chr>           <int>          <dbl>                  <dbl>
#>  1 1636-69-001 hypo  lv1                 3           0.47                      0
#>  2 1636-69-001 hypo  lv2                 0           0                         0
#>  3 1636-69-001 hypo  exten…              0           0                         0
#>  4 1636-69-001 hypo  lv1_e…              3           0.47                      0
#>  5 1636-69-001 hypo  rebou…              0           0                         0
#>  6 1636-69-001 hyper lv1                 4           0.62                      0
#>  7 1636-69-001 hyper lv2                 0           0                         0
#>  8 1636-69-001 hyper exten…              0           0                         0
#>  9 1636-69-001 hyper lv1_e…              4           0.62                      0
#> 10 1636-69-001 hyper rebou…              0           0                         0
#> # ℹ 180 more rows
#> # ℹ abbreviated name: ¹​avg_minutes_below_54_per_episode
```
…
